^G:\RTR_VISUALSTUDIO_2019\SIR_ASSIGNMENT\ASSIGNMENT_40\DYNAMIC_INDIA\DYNMAICINDIA.CPP
G:\RTR_VISUALSTUDIO_2019\SIR_ASSIGNMENT\ASSIGNMENT_40\DYNAMIC_INDIA\DEBUG\VC142.PDB
G:\RTR_VISUALSTUDIO_2019\SIR_ASSIGNMENT\ASSIGNMENT_40\DYNAMIC_INDIA\DEBUG\VC142.IDB
G:\RTR_VISUALSTUDIO_2019\SIR_ASSIGNMENT\ASSIGNMENT_40\DYNAMIC_INDIA\DEBUG\DYNMAICINDIA.OBJ
