^G:\RTR_VISUALSTUDIO_2019\SIR_ASSIGNMENT\ASSIGNMENT_41\RECT_CIRCLE_TRI_INCIRCLE\RECT_CIRCLE_TRI_INCIRCLE.CPP
G:\RTR_VISUALSTUDIO_2019\SIR_ASSIGNMENT\ASSIGNMENT_41\RECT_CIRCLE_TRI_INCIRCLE\DEBUG\VC142.PDB
G:\RTR_VISUALSTUDIO_2019\SIR_ASSIGNMENT\ASSIGNMENT_41\RECT_CIRCLE_TRI_INCIRCLE\DEBUG\VC142.IDB
G:\RTR_VISUALSTUDIO_2019\SIR_ASSIGNMENT\ASSIGNMENT_41\RECT_CIRCLE_TRI_INCIRCLE\DEBUG\RECT_CIRCLE_TRI_INCIRCLE.OBJ
