^G:\RTR_VISUALSTUDIO_2019\SIR_ASSIGNMENT\ASSIGNMENT_42\CUBE\CUBE.CPP
G:\RTR_VISUALSTUDIO_2019\SIR_ASSIGNMENT\ASSIGNMENT_42\CUBE\DEBUG\VC142.PDB
G:\RTR_VISUALSTUDIO_2019\SIR_ASSIGNMENT\ASSIGNMENT_42\CUBE\DEBUG\VC142.IDB
G:\RTR_VISUALSTUDIO_2019\SIR_ASSIGNMENT\ASSIGNMENT_42\CUBE\DEBUG\CUBE.OBJ
